module gitlab.com/onori/img-optimize

go 1.12

require (
	github.com/dgrijalva/jwt-go v3.2.0+incompatible // indirect
	github.com/disintegration/imaging v1.6.0
	github.com/labstack/echo v3.3.10+incompatible
	github.com/labstack/gommon v0.2.9 // indirect
	golang.org/x/crypto v0.0.0-20190701094942-4def268fd1a4 // indirect
)
